lab4/lab4/lab2/waveform.vcd
$version Generated by VerilatedVcd $end
$timescale 1s $end

 $scope module TOP $end
  $var wire  1 .! clk $end
  $var wire 32 0! r[0] [31:0] $end
  $var wire 32 :! r[10] [31:0] $end
  $var wire 32 ;! r[11] [31:0] $end
  $var wire 32 <! r[12] [31:0] $end
  $var wire 32 =! r[13] [31:0] $end
  $var wire 32 >! r[14] [31:0] $end
  $var wire 32 ?! r[15] [31:0] $end
  $var wire 32 @! r[16] [31:0] $end
  $var wire 32 A! r[17] [31:0] $end
  $var wire 32 B! r[18] [31:0] $end
  $var wire 32 C! r[19] [31:0] $end
  $var wire 32 1! r[1] [31:0] $end
  $var wire 32 D! r[20] [31:0] $end
  $var wire 32 E! r[21] [31:0] $end
  $var wire 32 F! r[22] [31:0] $end
  $var wire 32 G! r[23] [31:0] $end
  $var wire 32 H! r[24] [31:0] $end
  $var wire 32 I! r[25] [31:0] $end
  $var wire 32 J! r[26] [31:0] $end
  $var wire 32 K! r[27] [31:0] $end
  $var wire 32 L! r[28] [31:0] $end
  $var wire 32 M! r[29] [31:0] $end
  $var wire 32 2! r[2] [31:0] $end
  $var wire 32 N! r[30] [31:0] $end
  $var wire 32 O! r[31] [31:0] $end
  $var wire 32 3! r[3] [31:0] $end
  $var wire 32 4! r[4] [31:0] $end
  $var wire 32 5! r[5] [31:0] $end
  $var wire 32 6! r[6] [31:0] $end
  $var wire 32 7! r[7] [31:0] $end
  $var wire 32 8! r[8] [31:0] $end
  $var wire 32 9! r[9] [31:0] $end
  $var wire  1 /! start $end
  $scope module PipelineCPU $end
   $var wire  4 C ALUCtl [3:0] $end
   $var wire  3 "! ALUOp [2:0] $end
   $var wire  3 D ALUOp_IDEX [2:0] $end
   $var wire  3 )! ALUOp_o [2:0] $end
   $var wire 32 Y! ALUResult [31:0] $end
   $var wire  1 #! ALUSrc $end
   $var wire 32 _ ALUSrc1 [31:0] $end
   $var wire 32 ` ALUSrc2 [31:0] $end
   $var wire  1 T ALUSrc_IDEX $end
   $var wire  1 *! ALUSrc_o $end
   $var wire 32 W! ALUin1 [31:0] $end
   $var wire 32 X! ALUin2 [31:0] $end
   $var wire  1 T! ASel $end
   $var wire  1 U! BSel $end
   $var wire  1 Z! BrEq $end
   $var wire  1 [! BrLT $end
   $var wire  5 a! EX_MEM_rd [4:0] $end
   $var wire  1 d! EX_MEM_regWrite $end
   $var wire  2 O ForwardA [1:0] $end
   $var wire  2 P ForwardB [1:0] $end
   $var wire 32 ^ IDEX_tmp [31:0] $end
   $var wire  1 c! ID_EX_regWrite $end
   $var wire  5 _! ID_EX_rs1 [4:0] $end
   $var wire  5 `! ID_EX_rs2 [4:0] $end
   $var wire  1 +! IF_ID_Write $end
   $var wire  5 b! MEM_WB_rd [4:0] $end
   $var wire  1 e! MEM_WB_regWrite $end
   $var wire  1 \! PCSel $end
   $var wire  1 ,! PCWrite $end
   $var wire 32 R! addr [31:0] $end
   $var wire 32 ]! aluResult_EXMEM [31:0] $end
   $var wire 32 ^! aluResult_MEMWB [31:0] $end
   $var wire 32 y aluout [31:0] $end
   $var wire 32 z aluout_EXMEM [31:0] $end
   $var wire 32 I aluout_MEMWB [31:0] $end
   $var wire  1 .! clk $end
   $var wire  1 -! control_signal_mux $end
   $var wire 32 N finalout [31:0] $end
   $var wire  1 v flush $end
   $var wire 32 h imm [31:0] $end
   $var wire 32 E imm_IDEX [31:0] $end
   $var wire 32 q inst [31:0] $end
   $var wire 32 ] inst_EXMEM [31:0] $end
   $var wire 32 \ inst_IDEX [31:0] $end
   $var wire 32 i inst_IFID [31:0] $end
   $var wire 32 g! inst_MEMWB [31:0] $end
   $var wire  1 } memRead $end
   $var wire  1 | memRead_EXMEM $end
   $var wire  1 { memRead_IDEX $end
   $var wire  1 Y memRead_MEMWB $end
   $var wire  1 %! memRead_o $end
   $var wire  1 ~ memWrite $end
   $var wire  1 W memWrite_EXMEM $end
   $var wire  1 U memWrite_IDEX $end
   $var wire  1 Z memWrite_MEMWB $end
   $var wire  1 &! memWrite_o $end
   $var wire  2 $! memtoReg [1:0] $end
   $var wire  2 R memtoReg_EXMEM [1:0] $end
   $var wire  2 Q memtoReg_IDEX [1:0] $end
   $var wire  2 S memtoReg_MEMWB [1:0] $end
   $var wire  2 (! memtoReg_o [1:0] $end
   $var wire 32 j pc_IFID [31:0] $end
   $var wire 32 P! pc_i [31:0] $end
   $var wire 32 r pc_o [31:0] $end
   $var wire 32 0! r[0] [31:0] $end
   $var wire 32 :! r[10] [31:0] $end
   $var wire 32 ;! r[11] [31:0] $end
   $var wire 32 <! r[12] [31:0] $end
   $var wire 32 =! r[13] [31:0] $end
   $var wire 32 >! r[14] [31:0] $end
   $var wire 32 ?! r[15] [31:0] $end
   $var wire 32 @! r[16] [31:0] $end
   $var wire 32 A! r[17] [31:0] $end
   $var wire 32 B! r[18] [31:0] $end
   $var wire 32 C! r[19] [31:0] $end
   $var wire 32 1! r[1] [31:0] $end
   $var wire 32 D! r[20] [31:0] $end
   $var wire 32 E! r[21] [31:0] $end
   $var wire 32 F! r[22] [31:0] $end
   $var wire 32 G! r[23] [31:0] $end
   $var wire 32 H! r[24] [31:0] $end
   $var wire 32 I! r[25] [31:0] $end
   $var wire 32 J! r[26] [31:0] $end
   $var wire 32 K! r[27] [31:0] $end
   $var wire 32 L! r[28] [31:0] $end
   $var wire 32 M! r[29] [31:0] $end
   $var wire 32 2! r[2] [31:0] $end
   $var wire 32 N! r[30] [31:0] $end
   $var wire 32 O! r[31] [31:0] $end
   $var wire 32 3! r[3] [31:0] $end
   $var wire 32 4! r[4] [31:0] $end
   $var wire 32 5! r[5] [31:0] $end
   $var wire 32 6! r[6] [31:0] $end
   $var wire 32 7! r[7] [31:0] $end
   $var wire 32 8! r[8] [31:0] $end
   $var wire 32 9! r[9] [31:0] $end
   $var wire 32 t readData1 [31:0] $end
   $var wire 32 F readData1_IDEX [31:0] $end
   $var wire 32 u readData2 [31:0] $end
   $var wire 32 G readData2_IDEX [31:0] $end
   $var wire 32 S! readDataMem [31:0] $end
   $var wire 32 M readDataMem_MEMWB [31:0] $end
   $var wire  1 !! regWrite $end
   $var wire  1 X regWrite_EXMEM $end
   $var wire  1 V regWrite_IDEX $end
   $var wire  1 [ regWrite_MEMWB $end
   $var wire  1 '! regWrite_o $end
   $var wire 32 f! rs2 [31:0] $end
   $var wire 32 K rs2_EXMEM [31:0] $end
   $var wire  1 /! start $end
   $var wire 32 s sum [31:0] $end
   $var wire 32 Q! sum2 [31:0] $end
   $var wire 32 J sum_EXMEM [31:0] $end
   $var wire 32 H sum_IDEX [31:0] $end
   $var wire 32 k sum_IFID [31:0] $end
   $var wire 32 L sum_MEMWB [31:0] $end
   $var wire 32 V! writeData [31:0] $end
   $scope module addrMux $end
    $var wire 32 R! addr [31:0] $end
    $var wire  3 m funct3 [2:0] $end
    $var wire  7 l opcode [6:0] $end
    $var wire 32 j pc [31:0] $end
    $var wire 32 t rs1 [31:0] $end
   $upscope $end
   $scope module m_ALU $end
    $var wire 32 _ A [31:0] $end
    $var wire 32 y ALUOut [31:0] $end
    $var wire  4 C ALUctl [3:0] $end
    $var wire 32 ` B [31:0] $end
   $upscope $end
   $scope module m_ALUCtrrl $end
    $var wire  4 C ALUCtl [3:0] $end
    $var wire  3 D ALUOp [2:0] $end
    $var wire  7 c combine [6:0] $end
    $var wire  3 b funct3 [2:0] $end
    $var wire  1 a funct7 $end
   $upscope $end
   $scope module m_Adder_1 $end
    $var wire 32 r a [31:0] $end
    $var wire 32 h! b [31:0] $end
    $var wire 32 s sum [31:0] $end
   $upscope $end
   $scope module m_Adder_2 $end
    $var wire 32 R! a [31:0] $end
    $var wire 32 h b [31:0] $end
    $var wire 32 Q! sum [31:0] $end
   $upscope $end
   $scope module m_Control $end
    $var wire  3 "! ALUOp [2:0] $end
    $var wire  1 #! ALUSrc $end
    $var wire  1 } memRead $end
    $var wire  1 ~ memWrite $end
    $var wire  2 $! memtoReg [1:0] $end
    $var wire  7 l opcode [6:0] $end
    $var wire  1 !! regWrite $end
   $upscope $end
   $scope module m_DataMemory $end
    $var wire 32 z address [31:0] $end
    $var wire  1 .! clk $end
    $var wire  1 | memRead $end
    $var wire  1 W memWrite $end
    $var wire 32 S! readData [31:0] $end
    $var wire  1 /! rst $end
    $var wire 32 K writeData [31:0] $end
   $upscope $end
   $scope module m_EX_MEM_register $end
    $var wire 32 y aluout [31:0] $end
    $var wire 32 z aluout_o [31:0] $end
    $var wire  1 .! clk $end
    $var wire 32 \ inst [31:0] $end
    $var wire 32 ] inst_o [31:0] $end
    $var wire  1 { memRead $end
    $var wire  1 | memRead_o $end
    $var wire  1 U memWrite $end
    $var wire  1 W memWrite_o $end
    $var wire  2 Q memtoReg [1:0] $end
    $var wire  2 R memtoReg_o [1:0] $end
    $var wire  1 V regWrite $end
    $var wire  1 X regWrite_o $end
    $var wire 32 ` rs2_EXMEM [31:0] $end
    $var wire 32 K rs2_EXMEM_o [31:0] $end
    $var wire  1 /! rst $end
    $var wire 32 H sum [31:0] $end
    $var wire 32 J sum_o [31:0] $end
   $upscope $end
   $scope module m_ForwardingUnit $end
    $var wire  1 X EX_MEM_RegWrite $end
    $var wire  5 f EX_MEM_rd [4:0] $end
    $var wire  2 O ForwardA [1:0] $end
    $var wire  2 P ForwardB [1:0] $end
    $var wire  5 d ID_EX_rs1 [4:0] $end
    $var wire  5 e ID_EX_rs2 [4:0] $end
    $var wire  1 [ MEM_WB_RegWrite $end
    $var wire  5 i! MEM_WB_rd [4:0] $end
   $upscope $end
   $scope module m_HazardDetectionUnit $end
    $var wire  5 f EX_MEM_rd [4:0] $end
    $var wire  1 X EX_MEM_regWrite $end
    $var wire  1 { ID_EX_MemRead $end
    $var wire  5 g ID_EX_rd [4:0] $end
    $var wire  1 V ID_EX_regWrite $end
    $var wire  1 +! IF_ID_Write $end
    $var wire  5 n IF_ID_rs1 [4:0] $end
    $var wire  5 o IF_ID_rs2 [4:0] $end
    $var wire  1 ,! PCWrite $end
    $var wire  1 -! control_signal_mux $end
   $upscope $end
   $scope module m_ID_EX_register $end
    $var wire  3 )! ALUOp [2:0] $end
    $var wire  3 D ALUOp_o [2:0] $end
    $var wire  1 *! ALUSrc $end
    $var wire  1 T ALUSrc_o $end
    $var wire  1 .! clk $end
    $var wire 32 h imm [31:0] $end
    $var wire 32 E imm_o [31:0] $end
    $var wire 32 q inst [31:0] $end
    $var wire 32 \ inst_o [31:0] $end
    $var wire  1 %! memRead $end
    $var wire  1 { memRead_o $end
    $var wire  1 &! memWrite $end
    $var wire  1 U memWrite_o $end
    $var wire  2 (! memtoReg [1:0] $end
    $var wire  2 Q memtoReg_o [1:0] $end
    $var wire 32 t readData1 [31:0] $end
    $var wire 32 F readData1_o [31:0] $end
    $var wire 32 u readData2 [31:0] $end
    $var wire 32 G readData2_o [31:0] $end
    $var wire  1 '! regWrite $end
    $var wire  1 V regWrite_o $end
    $var wire  1 /! rst $end
    $var wire 32 s sum [31:0] $end
    $var wire 32 H sum_o [31:0] $end
   $upscope $end
   $scope module m_IF_ID_Register $end
    $var wire  1 +! IF_ID_Write $end
    $var wire  1 .! clk $end
    $var wire  1 v flush $end
    $var wire 32 q inst_i [31:0] $end
    $var wire 32 i instr_o [31:0] $end
    $var wire 32 r pc_i [31:0] $end
    $var wire 32 j pc_o [31:0] $end
    $var wire 32 s pc_plus4_i [31:0] $end
    $var wire 32 k pc_plus4_o [31:0] $end
    $var wire  1 /! rst $end
   $upscope $end
   $scope module m_ImmGen $end
    $var wire 32 h imm [31:0] $end
    $var wire 32 i inst [31:0] $end
    $var wire  7 l opcode [6:0] $end
   $upscope $end
   $scope module m_InstMem $end
    $var wire 32 q inst [31:0] $end
    $var wire 32 r readAddr [31:0] $end
   $upscope $end
   $scope module m_MEM_WB_register $end
    $var wire 32 z aluout [31:0] $end
    $var wire 32 I aluout_o [31:0] $end
    $var wire  1 .! clk $end
    $var wire  1 | memRead $end
    $var wire  1 Y memRead_o $end
    $var wire  1 W memWrite $end
    $var wire  1 Z memWrite_o $end
    $var wire  2 R memtoReg [1:0] $end
    $var wire  2 S memtoReg_o [1:0] $end
    $var wire 32 S! readDataMem [31:0] $end
    $var wire 32 M readDataMem_o [31:0] $end
    $var wire  1 X regWrite $end
    $var wire  1 [ regWrite_o $end
    $var wire  1 /! rst $end
    $var wire 32 J sum [31:0] $end
    $var wire 32 L sum_o [31:0] $end
   $upscope $end
   $scope module m_MUX_ALUSrc1 $end
    $var wire 32 _ out [31:0] $end
    $var wire 32 F s0 [31:0] $end
    $var wire 32 N s1 [31:0] $end
    $var wire 32 ]! s2 [31:0] $end
    $var wire  2 O sel [1:0] $end
   $upscope $end
   $scope module m_MUX_ALUSrc2 $end
    $var wire 32 ` out [31:0] $end
    $var wire 32 ^ s0 [31:0] $end
    $var wire 32 N s1 [31:0] $end
    $var wire 32 ]! s2 [31:0] $end
    $var wire  2 P sel [1:0] $end
   $upscope $end
   $scope module m_MuxCtrl $end
    $var wire  3 "! ALUOp [2:0] $end
    $var wire  3 )! ALUOp_o [2:0] $end
    $var wire  1 #! ALUSrc $end
    $var wire  1 *! ALUSrc_o $end
    $var wire  1 } memRead $end
    $var wire  1 %! memRead_o $end
    $var wire  1 ~ memWrite $end
    $var wire  1 &! memWrite_o $end
    $var wire  2 $! memtoReg [1:0] $end
    $var wire  2 (! memtoReg_o [1:0] $end
    $var wire  1 !! regWrite $end
    $var wire  1 '! regWrite_o $end
    $var wire  1 -! sel $end
   $upscope $end
   $scope module m_Mux_IDEX_1 $end
    $var wire 32 ^ out [31:0] $end
    $var wire 32 G s0 [31:0] $end
    $var wire 32 E s1 [31:0] $end
    $var wire  1 T sel $end
    $var wire 32 j! size [31:0] $end
   $upscope $end
   $scope module m_Mux_PC $end
    $var wire  1 v PCSel $end
    $var wire 32 Q! aluResult [31:0] $end
    $var wire 32 s nextPC [31:0] $end
    $var wire 32 P! out [31:0] $end
   $upscope $end
   $scope module m_Mux_WR $end
    $var wire 32 I AluData [31:0] $end
    $var wire 32 M mem [31:0] $end
    $var wire  2 S memtoReg [1:0] $end
    $var wire 32 L newPC [31:0] $end
    $var wire 32 N outResult [31:0] $end
   $upscope $end
   $scope module m_PC $end
    $var wire  1 ,! PCWrite $end
    $var wire  1 .! clk $end
    $var wire 32 P! pc_i [31:0] $end
    $var wire 32 r pc_o [31:0] $end
    $var wire  1 /! rst $end
   $upscope $end
   $scope module m_Register $end
    $var wire  1 .! clk $end
    $var wire 32 t readData1 [31:0] $end
    $var wire 32 u readData2 [31:0] $end
    $var wire  5 n readReg1 [4:0] $end
    $var wire  5 o readReg2 [4:0] $end
    $var wire  1 [ regWrite $end
    $var wire 32 # regs[0] [31:0] $end
    $var wire 32 - regs[10] [31:0] $end
    $var wire 32 . regs[11] [31:0] $end
    $var wire 32 / regs[12] [31:0] $end
    $var wire 32 0 regs[13] [31:0] $end
    $var wire 32 1 regs[14] [31:0] $end
    $var wire 32 2 regs[15] [31:0] $end
    $var wire 32 3 regs[16] [31:0] $end
    $var wire 32 4 regs[17] [31:0] $end
    $var wire 32 5 regs[18] [31:0] $end
    $var wire 32 6 regs[19] [31:0] $end
    $var wire 32 $ regs[1] [31:0] $end
    $var wire 32 7 regs[20] [31:0] $end
    $var wire 32 8 regs[21] [31:0] $end
    $var wire 32 9 regs[22] [31:0] $end
    $var wire 32 : regs[23] [31:0] $end
    $var wire 32 ; regs[24] [31:0] $end
    $var wire 32 < regs[25] [31:0] $end
    $var wire 32 = regs[26] [31:0] $end
    $var wire 32 > regs[27] [31:0] $end
    $var wire 32 ? regs[28] [31:0] $end
    $var wire 32 @ regs[29] [31:0] $end
    $var wire 32 % regs[2] [31:0] $end
    $var wire 32 A regs[30] [31:0] $end
    $var wire 32 B regs[31] [31:0] $end
    $var wire 32 & regs[3] [31:0] $end
    $var wire 32 ' regs[4] [31:0] $end
    $var wire 32 ( regs[5] [31:0] $end
    $var wire 32 ) regs[6] [31:0] $end
    $var wire 32 * regs[7] [31:0] $end
    $var wire 32 + regs[8] [31:0] $end
    $var wire 32 , regs[9] [31:0] $end
    $var wire  1 /! rst $end
    $var wire 32 N writeData [31:0] $end
    $var wire  5 p writeReg [4:0] $end
   $upscope $end
   $scope module m_branchComp $end
    $var wire  1 w BrEq $end
    $var wire  1 x BrLT $end
    $var wire  1 v flush $end
    $var wire  3 m funct3 [2:0] $end
    $var wire  7 l opcode [6:0] $end
    $var wire 32 t rs1 [31:0] $end
    $var wire 32 u rs2 [31:0] $end
   $upscope $end
  $upscope $end
 $upscope $end
$enddefinitions $end


#0
b00000000000000000000000000000000 #
b00000000000000000000000000000000 $
b00000000000000000000000000000000 %
b00000000000000000000000000000000 &
b00000000000000000000000000000000 '
b00000000000000000000000000000000 (
b00000000000000000000000000000000 )
b00000000000000000000000000000000 *
b00000000000000000000000000000000 +
b00000000000000000000000000000000 ,
b00000000000000000000000000000000 -
b00000000000000000000000000000000 .
b00000000000000000000000000000000 /
b00000000000000000000000000000000 0
b00000000000000000000000000000000 1
b00000000000000000000000000000000 2
b00000000000000000000000000000000 3
b00000000000000000000000000000000 4
b00000000000000000000000000000000 5
b00000000000000000000000000000000 6
b00000000000000000000000000000000 7
b00000000000000000000000000000000 8
b00000000000000000000000000000000 9
b00000000000000000000000000000000 :
b00000000000000000000000000000000 ;
b00000000000000000000000000000000 <
b00000000000000000000000000000000 =
b00000000000000000000000000000000 >
b00000000000000000000000000000000 ?
b00000000000000000000000000000000 @
b00000000000000000000000000000000 A
b00000000000000000000000000000000 B
b1111 C
b000 D
b00000000000000000000000000000000 E
b00000000000000000000000000000000 F
b00000000000000000000000000000000 G
b00000000000000000000000000000000 H
b00000000000000000000000000000000 I
b00000000000000000000000000000000 J
b00000000000000000000000000000000 K
b00000000000000000000000000000000 L
b00000000000000000000000000000000 M
b00000000000000000000000000000000 N
b00 O
b00 P
b00 Q
b00 R
b00 S
0T
0U
0V
0W
0X
0Y
0Z
0[
b00000000000000000000000000000000 \
b00000000000000000000000000000000 ]
b00000000000000000000000000000000 ^
b00000000000000000000000000000000 _
b00000000000000000000000000000000 `
0a
b000 b
b0000000 c
b00000 d
b00000 e
b00000 f
b00000 g
b00000000000000000000000000000000 h
b00000000000000000000000000000000 i
b00000000000000000000000000000000 j
b00000000000000000000000000000000 k
b0000000 l
b000 m
b00000 n
b00000 o
b00000 p
b00000000010000000000011000010011 q
b00000000000000000000000000000000 r
b00000000000000000000000000000100 s
b00000000000000000000000000000000 t
b00000000000000000000000000000000 u
0v
0w
0x
b00000000000000000000000000000000 y
b00000000000000000000000000000000 z
0{
0|
0}
0~
0!!
b000 "!
0#!
b00 $!
0%!
0&!
0'!
b00 (!
b000 )!
0*!
1+!
1,!
0-!
0.!
1/!
b00000000000000000000000000000000 0!
b00000000000000000000000000000000 1!
b00000000000000000000000000000000 2!
b00000000000000000000000000000000 3!
b00000000000000000000000000000000 4!
b00000000000000000000000000000000 5!
b00000000000000000000000000000000 6!
b00000000000000000000000000000000 7!
b00000000000000000000000000000000 8!
b00000000000000000000000000000000 9!
b00000000000000000000000000000000 :!
b00000000000000000000000000000000 ;!
b00000000000000000000000000000000 <!
b00000000000000000000000000000000 =!
b00000000000000000000000000000000 >!
b00000000000000000000000000000000 ?!
b00000000000000000000000000000000 @!
b00000000000000000000000000000000 A!
b00000000000000000000000000000000 B!
b00000000000000000000000000000000 C!
b00000000000000000000000000000000 D!
b00000000000000000000000000000000 E!
b00000000000000000000000000000000 F!
b00000000000000000000000000000000 G!
b00000000000000000000000000000000 H!
b00000000000000000000000000000000 I!
b00000000000000000000000000000000 J!
b00000000000000000000000000000000 K!
b00000000000000000000000000000000 L!
b00000000000000000000000000000000 M!
b00000000000000000000000000000000 N!
b00000000000000000000000000000000 O!
b00000000000000000000000000000100 P!
b00000000000000000000000000000000 Q!
b00000000000000000000000000000000 R!
b00000000000000000000000000000000 S!
0T!
0U!
b00000000000000000000000000000000 V!
b00000000000000000000000000000000 W!
b00000000000000000000000000000000 X!
b00000000000000000000000000000000 Y!
0Z!
0[!
0\!
b00000000000000000000000000000000 ]!
b00000000000000000000000000000000 ^!
b00000 _!
b00000 `!
b00000 a!
b00000 b!
0c!
0d!
0e!
b00000000000000000000000000000000 f!
b00000000000000000000000000000000 g!
b00000000000000000000000000000100 h!
b00000 i!
b00000000000000000000000000100000 j!
#1
b00000000000000000000000010000000 %
1.!
0/!
b00000000000000000000000010000000 2!
#2
b00000000000000000000000000000100 h
b00000000010000000000011000010011 i
b00000000000000000000000000000100 k
b0010011 l
b00100 o
b01100 p
1!!
b011 "!
1'!
b011 )!
0.!
1/!
b00000000000000000000000000000100 Q!
#3
b0001 C
b011 D
b00000000000000000000000000000100 E
b00000000000000000000000000000100 H
1V
b00000000010000000000011000010011 \
b0110000 c
b00100 e
b01100 g
b00000000110000000000000011101111 q
b00000000000000000000000000000100 r
b00000000000000000000000000001000 s
1.!
b00000000000000000000000000001000 P!
#4
0.!
#5
b00000000000000000000000000001000 H
b00000000000000000000000000000100 J
b10 P
1X
b00000000110000000000000011101111 \
b00000000010000000000011000010011 ]
b01100 e
b01100 f
b00001 g
b00000000000000000000000000001100 h
b00000000110000000000000011101111 i
b00000000000000000000000000000100 j
b00000000000000000000000000001000 k
b1101111 l
b01100 o
b00001 p
b00000000010000000000000011101111 q
b00000000000000000000000000001000 r
b00000000000000000000000000001100 s
b100 "!
1#!
b10 $!
0'!
b000 )!
0+!
0,!
1-!
1.!
b00000000000000000000000000001100 P!
b00000000000000000000000000010000 Q!
b00000000000000000000000000000100 R!
#6
0.!
#7
b1111 C
b000 D
b00000000000000000000000000001100 E
b00000000000000000000000000001100 H
b00000000000000000000000000001000 J
b00000000000000000000000000000100 L
b00 P
0V
1[
b00000000010000000000000011101111 \
b00000000110000000000000011101111 ]
b0000000 c
b00100 e
b00001 f
1'!
b10 (!
b100 )!
1*!
1+!
1,!
0-!
1.!
#8
0.!
#9
b100 D
b00000000000000000000000000001100 J
b00000000000000000000000000001000 L
b10 Q
1T
1V
0X
b00000000010000000000000011101111 ]
b00000000000000000000000000001100 ^
b00000000000000000000000000001100 `
b1000000 c
b00000000000000000000000000000100 h
b00000000010000000000000011101111 i
b00000000000000000000000000001000 j
b00000000000000000000000000001100 k
b00100 o
b00000000000000000000000001101111 q
b00000000000000000000000000001100 r
b00000000000000000000000000010000 s
b00000000000000000000000000001100 y
1.!
b00000000000000000000000000010000 P!
b00000000000000000000000000001100 Q!
b00000000000000000000000000001000 R!
#10
0.!
#11
b00000000000000000000000000000100 E
b00000000000000000000000000010000 H
b00000000000000000000000000001100 K
b00000000000000000000000000001100 L
b10 R
1X
0[
b00000000000000000000000001101111 \
b00000000000000000000000000000100 ^
b00000000000000000000000000000100 `
b00000 e
b00000 g
b00000000000000000000000000000000 h
b00000000000000000000000001101111 i
b00000000000000000000000000001100 j
b00000000000000000000000000010000 k
b00000 o
b00000 p
b11111111010000010000000100010011 q
b00000000000000000000000000010000 r
b00000000000000000000000000010100 s
b00000000000000000000000000000100 y
b00000000000000000000000000001100 z
0'!
b00 (!
b000 )!
0*!
0+!
0,!
1-!
1.!
b00000000000000000000000000010100 P!
b00000000000000000000000000001100 R!
#12
0.!
#13
b000 D
b00000000000000000000000000000000 E
b00000000000000000000000000010100 H
b00000000000000000000000000001100 I
b00000000000000000000000000010000 J
b00000000000000000000000000000100 K
b00000000000000000000000000001100 N
b00 Q
b10 S
0T
0V
1[
b11111111010000010000000100010011 \
b00000000000000000000000001101111 ]
b00000000000000000000000000000000 ^
b00000000000000000000000000000000 `
1a
b0001000 c
b00010 d
b10100 e
b00000 f
b00010 g
b00000000000000000000000000000000 y
b00000000000000000000000000000100 z
1.!
#14
0.!
#15
b00000000000000000000000000000100 I
b00000000000000000000000000010100 J
b00000000000000000000000000000000 K
b00000000000000000000000000010000 L
b00000000000000000000000000010000 N
b00 R
0X
b11111111010000010000000100010011 ]
b00010 f
b00000000000000000000000000000000 z
1'!
b10 (!
b100 )!
1*!
1+!
1,!
0-!
1.!
#16
0.!
#17
b100 D
b00000000000000000000000000000000 I
b00000000000000000000000000010100 L
b00000000000000000000000000000000 N
b10 Q
b00 S
1T
1V
0[
b1001000 c
b11111111111111111111111111110100 h
b11111111010000010000000100010011 i
b00000000000000000000000000010000 j
b00000000000000000000000000010100 k
b0010011 l
b00010 n
b10100 o
b00010 p
b00000000000100010010010000100011 q
b00000000000000000000000000010100 r
b00000000000000000000000000011000 s
b00000000000000000000000010000000 t
b011 "!
b00 $!
0'!
b00 (!
b000 )!
0*!
0+!
0,!
1-!
1.!
b00000000000000000000000000011000 P!
b00000000000000000000000000000100 Q!
b00000000000000000000000000010000 R!
#18
0.!
#19
b0001 C
b000 D
b11111111111111111111111111110100 E
b00000000000000000000000010000000 F
b00000000000000000000000000011000 H
b10 O
b00 Q
b10 R
0T
0V
1X
b00000000000100010010010000100011 \
0a
b010 b
b0000010 c
b00001 e
b01000 g
1.!
#20
0.!
#21
b00000000000000000000000000011000 J
b00000000000000000000000000010100 N
b00 O
b00 R
b10 S
0X
1[
b00000000000100010010010000100011 ]
b00000000000000000000000010000000 _
b01000 f
b00000000000000000000000010000000 y
1'!
b011 )!
1*!
1+!
1,!
0-!
1.!
#22
b00000000000000000000000000010100 %
b00000000000000000000000000010100 t
0.!
b00000000000000000000000000010100 2!
#23
b0110 C
b011 D
b00000000000000000000000000010100 F
b00000000000000000000000000011000 L
b00000000000000000000000000000000 N
b00 S
1T
1V
0[
b11111111111111111111111111110100 ^
b00000000000000000000000000010100 _
b11111111111111111111111111110100 `
b0110010 c
b00000000000000000000000000001000 h
b00000000000100010010010000100011 i
b00000000000000000000000000010100 j
b00000000000000000000000000011000 k
b0100011 l
b010 m
b00001 o
b01000 p
b00000000100000010010001000100011 q
b00000000000000000000000000011000 r
b00000000000000000000000000011100 s
b00000000000000000000000000000000 y
b00000000000000000000000010000000 z
1~
0!!
b000 "!
1&!
0'!
b000 )!
1.!
b00000000000000000000000000011100 P!
b00000000000000000000000000011100 Q!
b00000000000000000000000000010100 R!
#24
0.!
#25
b0001 C
b000 D
b00000000000000000000000000001000 E
b00000000000000000000000000011100 H
b00000000000000000000000010000000 I
b11111111111111111111111111110100 K
b00000000000000000000000010000000 N
b10 P
1U
0V
1X
b00000000100000010010001000100011 \
b00000000000000000000000000001000 ^
b00000000000000000000000000000000 `
b0000010 c
b01000 e
b00100 g
b00000000000000000000000000000100 h
b00000000100000010010001000100011 i
b00000000000000000000000000011000 j
b00000000000000000000000000011100 k
b01000 o
b00100 p
b00000000000000000000010100010011 q
b00000000000000000000000000011100 r
b00000000000000000000000000100000 s
b00000000000000000000000000010100 y
b00000000000000000000000000000000 z
0&!
0*!
0+!
0,!
1-!
1.!
b00000000000000000000000000100000 P!
b00000000000000000000000000011000 R!
#26
0.!
#27
b1111 C
b00000000000000000000000000000100 E
b00000000000000000000000000100000 H
b00000000000000000000000000000000 I
b00000000000000000000000000011100 J
b00000000000000000000000000000000 K
b00000000000000000000000000000000 N
b00 P
0T
0U
1W
0X
1[
b00000000000000000000010100010011 \
b00000000100000010010001000100011 ]
b00000000000000000000000000000000 ^
b000 b
b0000000 c
b00000 d
b00000 e
b00100 f
b01010 g
b00000000000000000000000000010100 z
1&!
1*!
1+!
1,!
0-!
1.!
#28
0.!
#29
b00000000000000000000000000010100 I
b00000000000000000000000000100000 J
b00000000000000000000000000011100 L
b00000000000000000000000000010100 N
1T
1U
0W
1Z
0[
b00000000000000000000010100010011 ]
b00000000000000000000000000000100 ^
b00000000000000000000000000000100 `
b01010 f
b00000000000000000000000000000000 h
b00000000000000000000010100010011 i
b00000000000000000000000000011100 j
b00000000000000000000000000100000 k
b0010011 l
b000 m
b00000 n
b00000 o
b01010 p
b00000010000001100000011001100011 q
b00000000000000000000000000100000 r
b00000000000000000000000000100100 s
b00000000000000000000000000000000 t
b00000000000000000000000000011000 y
0~
1!!
b011 "!
0&!
1'!
b011 )!
1.!
b00000000000000000000000000100100 P!
b00000000000000000000000000011100 R!
#30
0.!
#31
b0001 C
b011 D
b00000000000000000000000000000000 E
b00000000000000000000000000000000 F
b00000000000000000000000000100100 H
b00000000000000000000000000000100 K
b00000000000000000000000000100000 L
0U
1V
1W
0Z
b00000010000001100000011001100011 \
b00000000000000000000000000000000 ^
b00000000000000000000000000000000 _
b00000000000000000000000000000000 `
b0110000 c
b01100 d
b01100 g
b00000000000000000000000000101100 h
b00000010000001100000011001100011 i
b00000000000000000000000000100000 j
b00000000000000000000000000100100 k
b1100011 l
b01100 n
b01100 p
b00000000000101010000010100010011 q
b00000000000000000000000000100100 r
b00000000000000000000000000101000 s
1v
1w
b00000000000000000000000000000000 y
b00000000000000000000000000011000 z
0!!
b001 "!
0#!
0'!
b000 )!
0*!
0+!
0,!
1-!
1.!
b00000000000000000000000001001100 P!
b00000000000000000000000001001100 Q!
b00000000000000000000000000100000 R!
#32
0.!
#33
b1111 C
b000 D
b00000000000000000000000000101100 E
b00000000000000000000000000101000 H
b00000000000000000000000000011000 I
b00000000000000000000000000100100 J
b00000000000000000000000000000000 K
b00000000000000000000000000011000 N
0T
0V
0W
1X
1Z
b00000000000101010000010100010011 \
b00000010000001100000011001100011 ]
b0000000 c
b01010 d
b00001 e
b01100 f
b01010 g
b00000000000000000000000000000000 h
b00000000000000000000000000000000 i
b00000000000000000000000000000000 j
b00000000000000000000000000000000 k
b0000000 l
b00000 n
b00000 p
0v
0w
b00000000000000000000000000000000 z
b000 "!
1+!
1,!
0-!
1.!
b00000000000000000000000000101000 P!
b00000000000000000000000000000000 Q!
b00000000000000000000000000000000 R!
#34
0.!
