lab3/111950031/waveform.vcd
$version Generated by VerilatedVcd $end
$timescale 1s $end

 $scope module TOP $end
  $var wire  1 #! clk $end
  $var wire 32 %! r[0] [31:0] $end
  $var wire 32 /! r[10] [31:0] $end
  $var wire 32 0! r[11] [31:0] $end
  $var wire 32 1! r[12] [31:0] $end
  $var wire 32 2! r[13] [31:0] $end
  $var wire 32 3! r[14] [31:0] $end
  $var wire 32 4! r[15] [31:0] $end
  $var wire 32 5! r[16] [31:0] $end
  $var wire 32 6! r[17] [31:0] $end
  $var wire 32 7! r[18] [31:0] $end
  $var wire 32 8! r[19] [31:0] $end
  $var wire 32 &! r[1] [31:0] $end
  $var wire 32 9! r[20] [31:0] $end
  $var wire 32 :! r[21] [31:0] $end
  $var wire 32 ;! r[22] [31:0] $end
  $var wire 32 <! r[23] [31:0] $end
  $var wire 32 =! r[24] [31:0] $end
  $var wire 32 >! r[25] [31:0] $end
  $var wire 32 ?! r[26] [31:0] $end
  $var wire 32 @! r[27] [31:0] $end
  $var wire 32 A! r[28] [31:0] $end
  $var wire 32 B! r[29] [31:0] $end
  $var wire 32 '! r[2] [31:0] $end
  $var wire 32 C! r[30] [31:0] $end
  $var wire 32 D! r[31] [31:0] $end
  $var wire 32 (! r[3] [31:0] $end
  $var wire 32 )! r[4] [31:0] $end
  $var wire 32 *! r[5] [31:0] $end
  $var wire 32 +! r[6] [31:0] $end
  $var wire 32 ,! r[7] [31:0] $end
  $var wire 32 -! r[8] [31:0] $end
  $var wire 32 .! r[9] [31:0] $end
  $var wire  1 $! start $end
  $scope module SingleCycleCPU $end
   $var wire  4 6 ALUCtl [3:0] $end
   $var wire  2 "! ALUOp [1:0] $end
   $var wire  2 I ALUOp_EXMEM [1:0] $end
   $var wire  2 H ALUOp_IDEX [1:0] $end
   $var wire  2 J ALUOp_MEMWB [1:0] $end
   $var wire  1 | ALUSrc $end
   $var wire  1 @ ALUSrc_EXMEM $end
   $var wire  1 ; ALUSrc_IDEX $end
   $var wire  1 F ALUSrc_MEMWB $end
   $var wire 32 u ALU_result [31:0] $end
   $var wire 32 v ALU_result_EXMEM [31:0] $end
   $var wire 32 4 ALU_result_MEMWB [31:0] $end
   $var wire  1 w ALU_zero $end
   $var wire  1 7 ALU_zero_EXMEM $end
   $var wire  1 ' PCSrc $end
   $var wire 32 # PC_EXMEM [31:0] $end
   $var wire 32 & PC_adder_out [31:0] $end
   $var wire 32 % PC_out_IDEX [31:0] $end
   $var wire 32 $ PC_out_IFID [31:0] $end
   $var wire 32 r added_pc [31:0] $end
   $var wire  1 x branch $end
   $var wire  1 = branch_EXMEM $end
   $var wire  1 8 branch_IDEX $end
   $var wire  1 B branch_MEMWB $end
   $var wire  1 #! clk $end
   $var wire 32 , imm [31:0] $end
   $var wire 32 - imm_IDEX [31:0] $end
   $var wire 32 . imm_shifted [31:0] $end
   $var wire 32 t inst [31:0] $end
   $var wire 32 * inst_EXMEM [31:0] $end
   $var wire 32 ) inst_IDEX [31:0] $end
   $var wire 32 ( inst_IFID [31:0] $end
   $var wire 32 + inst_MEMWB [31:0] $end
   $var wire  1 y memRead $end
   $var wire  1 !! memRead_EXMEM $end
   $var wire  1 ~ memRead_IDEX $end
   $var wire  1 C memRead_MEMWB $end
   $var wire  1 { memWrite $end
   $var wire  1 ? memWrite_EXMEM $end
   $var wire  1 : memWrite_IDEX $end
   $var wire  1 E memWrite_MEMWB $end
   $var wire  1 z memtoReg $end
   $var wire  1 > memtoReg_EXMEM $end
   $var wire  1 9 memtoReg_IDEX $end
   $var wire  1 D memtoReg_MEMWB $end
   $var wire 32 5 mux_ALU_out [31:0] $end
   $var wire 32 3 mux_out [31:0] $end
   $var wire 32 E! pc_in [31:0] $end
   $var wire 32 s pc_out [31:0] $end
   $var wire 32 %! r[0] [31:0] $end
   $var wire 32 /! r[10] [31:0] $end
   $var wire 32 0! r[11] [31:0] $end
   $var wire 32 1! r[12] [31:0] $end
   $var wire 32 2! r[13] [31:0] $end
   $var wire 32 3! r[14] [31:0] $end
   $var wire 32 4! r[15] [31:0] $end
   $var wire 32 5! r[16] [31:0] $end
   $var wire 32 6! r[17] [31:0] $end
   $var wire 32 7! r[18] [31:0] $end
   $var wire 32 8! r[19] [31:0] $end
   $var wire 32 &! r[1] [31:0] $end
   $var wire 32 9! r[20] [31:0] $end
   $var wire 32 :! r[21] [31:0] $end
   $var wire 32 ;! r[22] [31:0] $end
   $var wire 32 <! r[23] [31:0] $end
   $var wire 32 =! r[24] [31:0] $end
   $var wire 32 >! r[25] [31:0] $end
   $var wire 32 ?! r[26] [31:0] $end
   $var wire 32 @! r[27] [31:0] $end
   $var wire 32 A! r[28] [31:0] $end
   $var wire 32 B! r[29] [31:0] $end
   $var wire 32 '! r[2] [31:0] $end
   $var wire 32 C! r[30] [31:0] $end
   $var wire 32 D! r[31] [31:0] $end
   $var wire 32 (! r[3] [31:0] $end
   $var wire 32 )! r[4] [31:0] $end
   $var wire 32 *! r[5] [31:0] $end
   $var wire 32 +! r[6] [31:0] $end
   $var wire 32 ,! r[7] [31:0] $end
   $var wire 32 -! r[8] [31:0] $end
   $var wire 32 .! r[9] [31:0] $end
   $var wire 32 H! readData [31:0] $end
   $var wire 32 F! readData1 [31:0] $end
   $var wire 32 / readData1_IDEX [31:0] $end
   $var wire 32 G! readData2 [31:0] $end
   $var wire 32 1 readData2_EXMEM [31:0] $end
   $var wire 32 0 readData2_IDEX [31:0] $end
   $var wire 32 2 readData_MEMWB [31:0] $end
   $var wire  1 } regWrite $end
   $var wire  1 A regWrite_EXMEM $end
   $var wire  1 < regWrite_IDEX $end
   $var wire  1 G regWrite_MEMWB $end
   $var wire  1 $! start $end
   $scope module m_ALU $end
    $var wire 32 / A [31:0] $end
    $var wire 32 u ALUOut [31:0] $end
    $var wire  4 6 ALUctl [3:0] $end
    $var wire 32 5 B [31:0] $end
    $var wire  1 w zero $end
   $upscope $end
   $scope module m_ALUCtrl $end
    $var wire  4 6 ALUCtl [3:0] $end
    $var wire  2 H ALUOp [1:0] $end
    $var wire  6 M combine [5:0] $end
    $var wire  3 L funct3 [2:0] $end
    $var wire  1 K funct7 $end
   $upscope $end
   $scope module m_ALU_EXMEM $end
    $var wire  1 #! clk $end
    $var wire 32 u p_in [31:0] $end
    $var wire 32 v p_out [31:0] $end
    $var wire  1 $! rst $end
    $var wire 32 I! size [31:0] $end
   $upscope $end
   $scope module m_ALU_MEMWB $end
    $var wire  1 #! clk $end
    $var wire 32 v p_in [31:0] $end
    $var wire 32 4 p_out [31:0] $end
    $var wire  1 $! rst $end
    $var wire 32 I! size [31:0] $end
   $upscope $end
   $scope module m_ALU_zero_EXMEM $end
    $var wire  1 #! clk $end
    $var wire  1 w p_in $end
    $var wire  1 7 p_out $end
    $var wire  1 $! rst $end
   $upscope $end
   $scope module m_Adder_1 $end
    $var wire 32 s a [31:0] $end
    $var wire 32 J! b [31:0] $end
    $var wire 32 r sum [31:0] $end
   $upscope $end
   $scope module m_Adder_2 $end
    $var wire 32 % a [31:0] $end
    $var wire 32 . b [31:0] $end
    $var wire 32 & sum [31:0] $end
   $upscope $end
   $scope module m_Control $end
    $var wire  2 "! ALUOp [1:0] $end
    $var wire  1 | ALUSrc $end
    $var wire  1 x branch $end
    $var wire  1 y memRead $end
    $var wire  1 { memWrite $end
    $var wire  1 z memtoReg $end
    $var wire  7 N opcode [6:0] $end
    $var wire  1 } regWrite $end
   $upscope $end
   $scope module m_Control_EXMEM $end
    $var wire  2 H ALUOp [1:0] $end
    $var wire  2 I ALUOp_out [1:0] $end
    $var wire  1 ; ALUSrc $end
    $var wire  1 @ ALUSrc_out $end
    $var wire  1 8 branch $end
    $var wire  1 = branch_out $end
    $var wire  1 #! clk $end
    $var wire  1 ~ memRead $end
    $var wire  1 !! memRead_out $end
    $var wire  1 : memWrite $end
    $var wire  1 ? memWrite_out $end
    $var wire  1 9 memtoReg $end
    $var wire  1 > memtoReg_out $end
    $var wire  1 < regWrite $end
    $var wire  1 A regWrite_out $end
    $var wire  1 $! rst $end
   $upscope $end
   $scope module m_Control_IDEX $end
    $var wire  2 "! ALUOp [1:0] $end
    $var wire  2 H ALUOp_out [1:0] $end
    $var wire  1 | ALUSrc $end
    $var wire  1 ; ALUSrc_out $end
    $var wire  1 x branch $end
    $var wire  1 8 branch_out $end
    $var wire  1 #! clk $end
    $var wire  1 y memRead $end
    $var wire  1 ~ memRead_out $end
    $var wire  1 { memWrite $end
    $var wire  1 : memWrite_out $end
    $var wire  1 z memtoReg $end
    $var wire  1 9 memtoReg_out $end
    $var wire  1 } regWrite $end
    $var wire  1 < regWrite_out $end
    $var wire  1 $! rst $end
   $upscope $end
   $scope module m_Control_MEMWB $end
    $var wire  2 I ALUOp [1:0] $end
    $var wire  2 J ALUOp_out [1:0] $end
    $var wire  1 @ ALUSrc $end
    $var wire  1 F ALUSrc_out $end
    $var wire  1 = branch $end
    $var wire  1 B branch_out $end
    $var wire  1 #! clk $end
    $var wire  1 !! memRead $end
    $var wire  1 C memRead_out $end
    $var wire  1 ? memWrite $end
    $var wire  1 E memWrite_out $end
    $var wire  1 > memtoReg $end
    $var wire  1 D memtoReg_out $end
    $var wire  1 A regWrite $end
    $var wire  1 G regWrite_out $end
    $var wire  1 $! rst $end
   $upscope $end
   $scope module m_DMem_MEMWB $end
    $var wire  1 #! clk $end
    $var wire 32 H! p_in [31:0] $end
    $var wire 32 2 p_out [31:0] $end
    $var wire  1 $! rst $end
    $var wire 32 I! size [31:0] $end
   $upscope $end
   $scope module m_DataMemory $end
    $var wire 32 v address [31:0] $end
    $var wire  1 #! clk $end
    $var wire  1 !! memRead $end
    $var wire  1 ? memWrite $end
    $var wire 32 H! readData [31:0] $end
    $var wire  1 $! rst $end
    $var wire 32 1 writeData [31:0] $end
   $upscope $end
   $scope module m_ImmGen $end
    $var wire 32 , imm [31:0] $end
    $var wire 32 ( inst [31:0] $end
    $var wire  7 N opcode [6:0] $end
   $upscope $end
   $scope module m_Imm_IDEX $end
    $var wire  1 #! clk $end
    $var wire 32 , p_in [31:0] $end
    $var wire 32 - p_out [31:0] $end
    $var wire  1 $! rst $end
    $var wire 32 I! size [31:0] $end
   $upscope $end
   $scope module m_InstMem $end
    $var wire 32 t inst [31:0] $end
    $var wire 32 s readAddr [31:0] $end
   $upscope $end
   $scope module m_Mux_ALU $end
    $var wire 32 5 out [31:0] $end
    $var wire 32 0 s0 [31:0] $end
    $var wire 32 - s1 [31:0] $end
    $var wire  1 ; sel $end
    $var wire 32 I! size [31:0] $end
   $upscope $end
   $scope module m_Mux_PC $end
    $var wire 32 E! out [31:0] $end
    $var wire 32 r s0 [31:0] $end
    $var wire 32 # s1 [31:0] $end
    $var wire  1 ' sel $end
    $var wire 32 I! size [31:0] $end
   $upscope $end
   $scope module m_Mux_WriteData $end
    $var wire 32 3 out [31:0] $end
    $var wire 32 4 s0 [31:0] $end
    $var wire 32 2 s1 [31:0] $end
    $var wire  1 D sel $end
    $var wire 32 I! size [31:0] $end
   $upscope $end
   $scope module m_PC $end
    $var wire  1 #! clk $end
    $var wire 32 E! pc_i [31:0] $end
    $var wire 32 s pc_o [31:0] $end
    $var wire  1 $! rst $end
   $upscope $end
   $scope module m_PC_EXMEM $end
    $var wire  1 #! clk $end
    $var wire 32 & p_in [31:0] $end
    $var wire 32 # p_out [31:0] $end
    $var wire  1 $! rst $end
    $var wire 32 I! size [31:0] $end
   $upscope $end
   $scope module m_PC_IDEX $end
    $var wire  1 #! clk $end
    $var wire 32 $ p_in [31:0] $end
    $var wire 32 % p_out [31:0] $end
    $var wire  1 $! rst $end
    $var wire 32 I! size [31:0] $end
   $upscope $end
   $scope module m_PC_IFID $end
    $var wire  1 #! clk $end
    $var wire 32 s p_in [31:0] $end
    $var wire 32 $ p_out [31:0] $end
    $var wire  1 $! rst $end
    $var wire 32 I! size [31:0] $end
   $upscope $end
   $scope module m_Register $end
    $var wire  1 #! clk $end
    $var wire 32 F! readData1 [31:0] $end
    $var wire 32 G! readData2 [31:0] $end
    $var wire  5 O readReg1 [4:0] $end
    $var wire  5 P readReg2 [4:0] $end
    $var wire  1 G regWrite $end
    $var wire 32 R regs[0] [31:0] $end
    $var wire 32 \ regs[10] [31:0] $end
    $var wire 32 ] regs[11] [31:0] $end
    $var wire 32 ^ regs[12] [31:0] $end
    $var wire 32 _ regs[13] [31:0] $end
    $var wire 32 ` regs[14] [31:0] $end
    $var wire 32 a regs[15] [31:0] $end
    $var wire 32 b regs[16] [31:0] $end
    $var wire 32 c regs[17] [31:0] $end
    $var wire 32 d regs[18] [31:0] $end
    $var wire 32 e regs[19] [31:0] $end
    $var wire 32 S regs[1] [31:0] $end
    $var wire 32 f regs[20] [31:0] $end
    $var wire 32 g regs[21] [31:0] $end
    $var wire 32 h regs[22] [31:0] $end
    $var wire 32 i regs[23] [31:0] $end
    $var wire 32 j regs[24] [31:0] $end
    $var wire 32 k regs[25] [31:0] $end
    $var wire 32 l regs[26] [31:0] $end
    $var wire 32 m regs[27] [31:0] $end
    $var wire 32 n regs[28] [31:0] $end
    $var wire 32 o regs[29] [31:0] $end
    $var wire 32 T regs[2] [31:0] $end
    $var wire 32 p regs[30] [31:0] $end
    $var wire 32 q regs[31] [31:0] $end
    $var wire 32 U regs[3] [31:0] $end
    $var wire 32 V regs[4] [31:0] $end
    $var wire 32 W regs[5] [31:0] $end
    $var wire 32 X regs[6] [31:0] $end
    $var wire 32 Y regs[7] [31:0] $end
    $var wire 32 Z regs[8] [31:0] $end
    $var wire 32 [ regs[9] [31:0] $end
    $var wire  1 $! rst $end
    $var wire 32 3 writeData [31:0] $end
    $var wire  5 Q writeReg [4:0] $end
   $upscope $end
   $scope module m_ShiftLeftOne $end
    $var wire 32 - i [31:0] $end
    $var wire 32 . o [31:0] $end
   $upscope $end
   $scope module m_inst_EXMEM $end
    $var wire  1 #! clk $end
    $var wire 32 ) p_in [31:0] $end
    $var wire 32 * p_out [31:0] $end
    $var wire  1 $! rst $end
    $var wire 32 I! size [31:0] $end
   $upscope $end
   $scope module m_inst_IDEX $end
    $var wire  1 #! clk $end
    $var wire 32 ( p_in [31:0] $end
    $var wire 32 ) p_out [31:0] $end
    $var wire  1 $! rst $end
    $var wire 32 I! size [31:0] $end
   $upscope $end
   $scope module m_inst_IFID $end
    $var wire  1 #! clk $end
    $var wire 32 t p_in [31:0] $end
    $var wire 32 ( p_out [31:0] $end
    $var wire  1 $! rst $end
    $var wire 32 I! size [31:0] $end
   $upscope $end
   $scope module m_inst_MEMWB $end
    $var wire  1 #! clk $end
    $var wire 32 * p_in [31:0] $end
    $var wire 32 + p_out [31:0] $end
    $var wire  1 $! rst $end
    $var wire 32 I! size [31:0] $end
   $upscope $end
   $scope module m_readData1_IDEX $end
    $var wire  1 #! clk $end
    $var wire 32 F! p_in [31:0] $end
    $var wire 32 / p_out [31:0] $end
    $var wire  1 $! rst $end
    $var wire 32 I! size [31:0] $end
   $upscope $end
   $scope module m_readData2_EXMEM $end
    $var wire  1 #! clk $end
    $var wire 32 0 p_in [31:0] $end
    $var wire 32 1 p_out [31:0] $end
    $var wire  1 $! rst $end
    $var wire 32 I! size [31:0] $end
   $upscope $end
   $scope module m_readData2_IDEX $end
    $var wire  1 #! clk $end
    $var wire 32 G! p_in [31:0] $end
    $var wire 32 0 p_out [31:0] $end
    $var wire  1 $! rst $end
    $var wire 32 I! size [31:0] $end
   $upscope $end
  $upscope $end
 $upscope $end
$enddefinitions $end


#0
b00000000000000000000000000000000 #
b00000000000000000000000000000000 $
b00000000000000000000000000000000 %
b00000000000000000000000000000000 &
0'
b00000000000000000000000000000000 (
b00000000000000000000000000000000 )
b00000000000000000000000000000000 *
b00000000000000000000000000000000 +
b00000000000000000000000000000000 ,
b00000000000000000000000000000000 -
b00000000000000000000000000000000 .
b00000000000000000000000000000000 /
b00000000000000000000000000000000 0
b00000000000000000000000000000000 1
b00000000000000000000000000000000 2
b00000000000000000000000000000000 3
b00000000000000000000000000000000 4
b00000000000000000000000000000000 5
b0000 6
07
08
09
0:
0;
0<
0=
0>
0?
0@
0A
0B
0C
0D
0E
0F
0G
b00 H
b00 I
b00 J
0K
b000 L
b000000 M
b0000000 N
b00000 O
b00000 P
b00000 Q
b00000000000000000000000000000000 R
b00000000000000000000000000000000 S
b00000000000000000000000000000000 T
b00000000000000000000000000000000 U
b00000000000000000000000000000000 V
b00000000000000000000000000000000 W
b00000000000000000000000000000000 X
b00000000000000000000000000000000 Y
b00000000000000000000000000000000 Z
b00000000000000000000000000000000 [
b00000000000000000000000000000000 \
b00000000000000000000000000000000 ]
b00000000000000000000000000000000 ^
b00000000000000000000000000000000 _
b00000000000000000000000000000000 `
b00000000000000000000000000000000 a
b00000000000000000000000000000000 b
b00000000000000000000000000000000 c
b00000000000000000000000000000000 d
b00000000000000000000000000000000 e
b00000000000000000000000000000000 f
b00000000000000000000000000000000 g
b00000000000000000000000000000000 h
b00000000000000000000000000000000 i
b00000000000000000000000000000000 j
b00000000000000000000000000000000 k
b00000000000000000000000000000000 l
b00000000000000000000000000000000 m
b00000000000000000000000000000000 n
b00000000000000000000000000000000 o
b00000000000000000000000000000000 p
b00000000000000000000000000000000 q
b00000000000000000000000000000100 r
b00000000000000000000000000000000 s
b00000000011100000000000010010011 t
b00000000000000000000000000000000 u
b00000000000000000000000000000000 v
1w
0x
0y
0z
0{
0|
0}
0~
0!!
b00 "!
0#!
1$!
b00000000000000000000000000000000 %!
b00000000000000000000000000000000 &!
b00000000000000000000000000000000 '!
b00000000000000000000000000000000 (!
b00000000000000000000000000000000 )!
b00000000000000000000000000000000 *!
b00000000000000000000000000000000 +!
b00000000000000000000000000000000 ,!
b00000000000000000000000000000000 -!
b00000000000000000000000000000000 .!
b00000000000000000000000000000000 /!
b00000000000000000000000000000000 0!
b00000000000000000000000000000000 1!
b00000000000000000000000000000000 2!
b00000000000000000000000000000000 3!
b00000000000000000000000000000000 4!
b00000000000000000000000000000000 5!
b00000000000000000000000000000000 6!
b00000000000000000000000000000000 7!
b00000000000000000000000000000000 8!
b00000000000000000000000000000000 9!
b00000000000000000000000000000000 :!
b00000000000000000000000000000000 ;!
b00000000000000000000000000000000 <!
b00000000000000000000000000000000 =!
b00000000000000000000000000000000 >!
b00000000000000000000000000000000 ?!
b00000000000000000000000000000000 @!
b00000000000000000000000000000000 A!
b00000000000000000000000000000000 B!
b00000000000000000000000000000000 C!
b00000000000000000000000000000000 D!
b00000000000000000000000000000100 E!
b00000000000000000000000000000000 F!
b00000000000000000000000000000000 G!
b00000000000000000000000000000000 H!
b00000000000000000000000000100000 I!
b00000000000000000000000000000100 J!
#1
b00000000000000000000000010000000 T
1#!
0$!
b00000000000000000000000010000000 '!
#2
0#!
1$!
#3
b00000000011100000000000010010011 (
b00000000000000000000000000000111 ,
17
b0010011 N
b00111 P
b00000000000000000000000000001000 r
b00000000000000000000000000000100 s
b00000000000000000000000000010011 t
1|
1}
b11 "!
1#!
b00000000000000000000000000001000 E!
#4
0#!
#5
b00000000000000000000000000000100 $
b00000000000000000000000000001110 &
b00000000000000000000000000010011 (
b00000000011100000000000010010011 )
b00000000000000000000000000000000 ,
b00000000000000000000000000000111 -
b00000000000000000000000000001110 .
b00000000000000000000000000000111 5
b0001 6
1;
1<
b11 H
b110000 M
b00000 P
b00000000000000000000000000001100 r
b00000000000000000000000000001000 s
b00000000000000000000000000000111 u
0w
1#!
b00000000000000000000000000001100 E!
#6
0#!
#7
b00000000000000000000000000001110 #
b00000000000000000000000000001000 $
b00000000000000000000000000000100 %
b00000000000000000000000000000100 &
b00000000000000000000000000010011 )
b00000000011100000000000010010011 *
b00000000000000000000000000000000 -
b00000000000000000000000000000000 .
b00000000000000000000000000000000 5
07
1@
1A
b11 I
b00000000000000000000000000010000 r
b00000000000000000000000000001100 s
b00000000000000000000000000000000 u
b00000000000000000000000000000111 v
1w
1#!
b00000000000000000000000000010000 E!
#8
0#!
#9
b00000000000000000000000000000100 #
b00000000000000000000000000001100 $
b00000000000000000000000000001000 %
b00000000000000000000000000001000 &
b00000000000000000000000000010011 *
b00000000011100000000000010010011 +
b00000000000000000000000000000111 3
b00000000000000000000000000000111 4
17
1F
1G
b11 J
b00001 Q
b00000000000000000000000000010100 r
b00000000000000000000000000010000 s
b00000000000000000000000000000000 v
1#!
b00000000000000000000000000010100 E!
#10
b00000000000000000000000000000111 S
0#!
b00000000000000000000000000000111 &!
#11
b00000000000000000000000000001000 #
b00000000000000000000000000010000 $
b00000000000000000000000000001100 %
b00000000000000000000000000001100 &
b00000000000000000000000000010011 +
b00000000000000000000000000000000 3
b00000000000000000000000000000000 4
b00000 Q
b00000000000000000000000000011000 r
b00000000000000000000000000010100 s
b00000000001100000000000100010011 t
1#!
b00000000000000000000000000011000 E!
#12
0#!
#13
b00000000000000000000000000001100 #
b00000000000000000000000000010100 $
b00000000000000000000000000010000 %
b00000000000000000000000000010000 &
b00000000001100000000000100010011 (
b00000000000000000000000000000011 ,
b00011 P
b00000000000000000000000000011100 r
b00000000000000000000000000011000 s
b00000000000000000000000000010011 t
1#!
b00000000000000000000000000011100 E!
#14
0#!
#15
b00000000000000000000000000010000 #
b00000000000000000000000000011000 $
b00000000000000000000000000010100 %
b00000000000000000000000000011010 &
b00000000000000000000000000010011 (
b00000000001100000000000100010011 )
b00000000000000000000000000000000 ,
b00000000000000000000000000000011 -
b00000000000000000000000000000110 .
b00000000000000000000000000000011 5
b00000 P
b00000000000000000000000000100000 r
b00000000000000000000000000011100 s
b00000000000000000000000000000011 u
0w
1#!
b00000000000000000000000000100000 E!
#16
0#!
#17
b00000000000000000000000000011010 #
b00000000000000000000000000011100 $
b00000000000000000000000000011000 %
b00000000000000000000000000011000 &
b00000000000000000000000000010011 )
b00000000001100000000000100010011 *
b00000000000000000000000000000000 -
b00000000000000000000000000000000 .
b00000000000000000000000000000000 5
07
b00000000000000000000000000100100 r
b00000000000000000000000000100000 s
b00000000000000000000000000000000 u
b00000000000000000000000000000011 v
1w
1#!
b00000000000000000000000000100100 E!
#18
0#!
#19
b00000000000000000000000000011000 #
b00000000000000000000000000100000 $
b00000000000000000000000000011100 %
b00000000000000000000000000011100 &
b00000000000000000000000000010011 *
b00000000001100000000000100010011 +
b00000000000000000000000000000011 3
b00000000000000000000000000000011 4
17
b00010 Q
b00000000000000000000000000101000 r
b00000000000000000000000000100100 s
b00000000000000000000000000000000 v
1#!
b00000000000000000000000000101000 E!
#20
b00000000000000000000000000000011 T
0#!
b00000000000000000000000000000011 '!
#21
b00000000000000000000000000011100 #
b00000000000000000000000000100100 $
b00000000000000000000000000100000 %
b00000000000000000000000000100000 &
b00000000000000000000000000010011 +
b00000000000000000000000000000000 3
b00000000000000000000000000000000 4
b00000 Q
b00000000000000000000000000101100 r
b00000000000000000000000000101000 s
b00000000001000001000000110110011 t
1#!
b00000000000000000000000000101100 E!
#22
0#!
#23
b00000000000000000000000000100000 #
b00000000000000000000000000101000 $
b00000000000000000000000000100100 %
b00000000000000000000000000100100 &
b00000000001000001000000110110011 (
b0110011 N
b00001 O
b00010 P
b00000000000000000000000000110000 r
b00000000000000000000000000101100 s
b00000000000000000000000000010011 t
0|
b10 "!
1#!
b00000000000000000000000000110000 E!
b00000000000000000000000000000111 F!
b00000000000000000000000000000011 G!
#24
0#!
#25
b00000000000000000000000000100100 #
b00000000000000000000000000101100 $
b00000000000000000000000000101000 %
b00000000000000000000000000101000 &
b00000000000000000000000000010011 (
b00000000001000001000000110110011 )
b00000000000000000000000000000111 /
b00000000000000000000000000000011 0
b00000000000000000000000000000011 5
0;
b10 H
b100000 M
b0010011 N
b00000 O
b00000 P
b00000000000000000000000000110100 r
b00000000000000000000000000110000 s
b00000000000000000000000000001010 u
0w
1|
b11 "!
1#!
b00000000000000000000000000110100 E!
b00000000000000000000000000000000 F!
b00000000000000000000000000000000 G!
#26
0#!
#27
b00000000000000000000000000101000 #
b00000000000000000000000000110000 $
b00000000000000000000000000101100 %
b00000000000000000000000000101100 &
b00000000000000000000000000010011 )
b00000000001000001000000110110011 *
b00000000000000000000000000000000 /
b00000000000000000000000000000000 0
b00000000000000000000000000000011 1
b00000000000000000000000000000000 5
07
1;
0@
b11 H
b10 I
b110000 M
b00000000000000000000000000111000 r
b00000000000000000000000000110100 s
b00000000000000000000000000000000 u
b00000000000000000000000000001010 v
1w
1#!
b00000000000000000000000000111000 E!
#28
0#!
#29
b00000000000000000000000000101100 #
b00000000000000000000000000110100 $
b00000000000000000000000000110000 %
b00000000000000000000000000110000 &
b00000000000000000000000000010011 *
b00000000001000001000000110110011 +
b00000000000000000000000000000000 1
b00000000000000000000000000001010 3
b00000000000000000000000000001010 4
17
1@
0F
b11 I
b10 J
b00011 Q
b00000000000000000000000000111100 r
b00000000000000000000000000111000 s
b00000000000000000000000000000000 v
1#!
b00000000000000000000000000111100 E!
#30
b00000000000000000000000000001010 U
0#!
b00000000000000000000000000001010 (!
#31
b00000000000000000000000000110000 #
b00000000000000000000000000111000 $
b00000000000000000000000000110100 %
b00000000000000000000000000110100 &
b00000000000000000000000000010011 +
b00000000000000000000000000000000 3
b00000000000000000000000000000000 4
1F
b11 J
b00000 Q
b00000000000000000000000001000000 r
b00000000000000000000000000111100 s
b01000000001000001000001000110011 t
1#!
b00000000000000000000000001000000 E!
#32
0#!
#33
b00000000000000000000000000110100 #
b00000000000000000000000000111100 $
b00000000000000000000000000111000 %
b00000000000000000000000000111000 &
b01000000001000001000001000110011 (
b0110011 N
b00001 O
b00010 P
b00000000000000000000000001000100 r
b00000000000000000000000001000000 s
b00000000000000000000000000010011 t
0|
b10 "!
1#!
b00000000000000000000000001000100 E!
b00000000000000000000000000000111 F!
b00000000000000000000000000000011 G!
#34
0#!
#35
b00000000000000000000000000111000 #
b00000000000000000000000001000000 $
b00000000000000000000000000111100 %
b00000000000000000000000000111100 &
b00000000000000000000000000010011 (
b01000000001000001000001000110011 )
b00000000000000000000000000000111 /
b00000000000000000000000000000011 0
b00000000000000000000000000000011 5
b0100 6
0;
b10 H
1K
b101000 M
b0010011 N
b00000 O
b00000 P
b00000000000000000000000001001000 r
b00000000000000000000000001000100 s
b00000000000000000000000000000100 u
0w
1|
b11 "!
1#!
b00000000000000000000000001001000 E!
b00000000000000000000000000000000 F!
b00000000000000000000000000000000 G!
#36
0#!
#37
b00000000000000000000000000111100 #
b00000000000000000000000001000100 $
b00000000000000000000000001000000 %
b00000000000000000000000001000000 &
b00000000000000000000000000010011 )
b01000000001000001000001000110011 *
b00000000000000000000000000000000 /
b00000000000000000000000000000000 0
b00000000000000000000000000000011 1
b00000000000000000000000000000000 5
b0001 6
07
1;
0@
b11 H
b10 I
0K
b110000 M
b00000000000000000000000001001100 r
b00000000000000000000000001001000 s
b00000000000000000000000000000000 u
b00000000000000000000000000000100 v
1w
1#!
b00000000000000000000000001001100 E!
#38
0#!
#39
b00000000000000000000000001000000 #
b00000000000000000000000001001000 $
b00000000000000000000000001000100 %
b00000000000000000000000001000100 &
b00000000000000000000000000010011 *
b01000000001000001000001000110011 +
b00000000000000000000000000000000 1
b00000000000000000000000000000100 3
b00000000000000000000000000000100 4
17
1@
0F
b11 I
b10 J
b00100 Q
b00000000000000000000000001010000 r
b00000000000000000000000001001100 s
b00000000000000000000000000000000 v
1#!
b00000000000000000000000001010000 E!
#40
b00000000000000000000000000000100 V
0#!
b00000000000000000000000000000100 )!
#41
b00000000000000000000000001000100 #
b00000000000000000000000001001100 $
b00000000000000000000000001001000 %
b00000000000000000000000001001000 &
b00000000000000000000000000010011 +
b00000000000000000000000000000000 3
b00000000000000000000000000000000 4
1F
b11 J
b00000 Q
b00000000000000000000000001010100 r
b00000000000000000000000001010000 s
b00000000010000011111001010110011 t
1#!
b00000000000000000000000001010100 E!
#42
0#!
#43
b00000000000000000000000001001000 #
b00000000000000000000000001010000 $
b00000000000000000000000001001100 %
b00000000000000000000000001001100 &
b00000000010000011111001010110011 (
b0110011 N
b00011 O
b00100 P
b00000000000000000000000001011000 r
b00000000000000000000000001010100 s
b00000000000000000000000000010011 t
0|
b10 "!
1#!
b00000000000000000000000001011000 E!
b00000000000000000000000000001010 F!
b00000000000000000000000000000100 G!
#44
0#!
#45
b00000000000000000000000001001100 #
b00000000000000000000000001010100 $
b00000000000000000000000001010000 %
b00000000000000000000000001010000 &
b00000000000000000000000000010011 (
b00000000010000011111001010110011 )
b00000000000000000000000000001010 /
b00000000000000000000000000000100 0
b00000000000000000000000000000100 5
b0111 6
0;
b10 H
b111 L
b100111 M
b0010011 N
b00000 O
b00000 P
b00000000000000000000000001011100 r
b00000000000000000000000001011000 s
1|
b11 "!
1#!
b00000000000000000000000001011100 E!
b00000000000000000000000000000000 F!
b00000000000000000000000000000000 G!
#46
0#!
#47
b00000000000000000000000001010000 #
b00000000000000000000000001011000 $
b00000000000000000000000001010100 %
b00000000000000000000000001010100 &
b00000000000000000000000000010011 )
b00000000010000011111001010110011 *
b00000000000000000000000000000000 /
b00000000000000000000000000000000 0
b00000000000000000000000000000100 1
b00000000000000000000000000000000 5
b0001 6
1;
0@
b11 H
b10 I
b000 L
b110000 M
b00000000000000000000000001100000 r
b00000000000000000000000001011100 s
1#!
b00000000000000000000000001100000 E!
#48
0#!
#49
b00000000000000000000000001010100 #
b00000000000000000000000001011100 $
b00000000000000000000000001011000 %
b00000000000000000000000001011000 &
b00000000000000000000000000010011 *
b00000000010000011111001010110011 +
b00000000000000000000000000000000 1
1@
0F
b11 I
b10 J
b00101 Q
b00000000000000000000000001100100 r
b00000000000000000000000001100000 s
1#!
b00000000000000000000000001100100 E!
#50
0#!
